<svg id="CircleIconTick.svg" xmlns="http://www.w3.org/2000/svg" width="203" height="201" viewBox="0 0 203 201">
  <defs>
    <style>
      .cls-1 {
        fill: #f2f2f2;
      }

      .cls-1, .cls-2 {
        fill-rule: evenodd;
      }

      .cls-2 {
        fill: #fcbc00;
      }
    </style>
  </defs>
  <path id="Circle_copy_4" data-name="Circle copy 4" class="cls-1" d="M915.5,201A101.5,101.5,0,1,1,1017,99.5,101.5,101.5,0,0,1,915.5,201Zm0-199A97.5,97.5,0,1,0,1013,99.5,97.5,97.5,0,0,0,915.5,2Z" transform="translate(-814)"/>
  <path id="Tick" class="cls-2" d="M957.257,63.109l-50.5,57.057L876.336,95.723a3.277,3.277,0,0,0-4.616.515,3.311,3.311,0,0,0,.513,4.64l32.856,26.4a3.279,3.279,0,0,0,4.512-.386l52.571-59.4A3.293,3.293,0,1,0,957.257,63.109Z" transform="translate(-814)"/>
</svg>
