<svg xmlns="http://www.w3.org/2000/svg" width="24" height="24" viewBox="0 0 24 24">
  <defs>
    <style>
      .cls-1 {
        fill: #fcbc00;
        fill-rule: evenodd;
      }
    </style>
  </defs>
  <path id="IconQuestion.svg" class="cls-1" d="M494,221a12,12,0,1,1-12,12A12,12,0,0,1,494,221Zm-1.428,14.574,2.5,0.5a4.377,4.377,0,0,1-.079-0.887,2.318,2.318,0,0,1,.694-1.592,4.958,4.958,0,0,0,1.685-3.445c0-2.035-1.546-3.405-3.886-3.405a5.293,5.293,0,0,0-2.835.766l0.6,2.5a3.891,3.891,0,0,1,2.022-.665,1,1,0,0,1,1.09.907,2.086,2.086,0,0,1-.773,1.511,3.955,3.955,0,0,0-1.15,2.781A4.1,4.1,0,0,0,492.572,235.574Zm-0.317,2.982a1.646,1.646,0,0,0,1.626,1.652A1.662,1.662,0,1,0,492.255,238.556Z" transform="translate(-482 -221)"/>
</svg>
