<svg xmlns="http://www.w3.org/2000/svg" width="72" height="53" viewBox="0 0 72 53">
  <defs>
    <style>
      .cls-1 {
        fill: #fcbc00;
        fill-rule: evenodd;
      }
    </style>
  </defs>
  <path id="IconDashboard.svg" class="cls-1" d="M1024,205h12a2,2,0,0,1,2,2v11a2,2,0,0,1-2,2h-12a2,2,0,0,1-2-2V207A2,2,0,0,1,1024,205Zm0,20h12a2,2,0,0,1,2,2v10a2,2,0,0,1-2,2h-12a2,2,0,0,1-2-2V227A2,2,0,0,1,1024,225Zm0,19h12a2,2,0,0,1,2,2v10a2,2,0,0,1-2,2h-12a2,2,0,0,1-2-2V246A2,2,0,0,1,1024,244Zm22-39h46a2,2,0,0,1,2,2v11a2,2,0,0,1-2,2h-46a2,2,0,0,1-2-2V207A2,2,0,0,1,1046,205Zm0,20h46a2,2,0,0,1,2,2v29a2,2,0,0,1-2,2h-46a2,2,0,0,1-2-2V227A2,2,0,0,1,1046,225Zm4,5h38v23h-38V230Z" transform="translate(-1022 -205)"/>
</svg>
