<svg id="CircleIconNew.svg" xmlns="http://www.w3.org/2000/svg" width="203" height="201" viewBox="0 0 203 201">
  <defs>
    <style>
      .cls-1 {
        fill: #f2f2f2;
      }

      .cls-1, .cls-2 {
        fill-rule: evenodd;
      }

      .cls-2 {
        fill: #fcbc00;
      }
    </style>
  </defs>
  <path id="Circle" class="cls-1" d="M106.5,201A101.5,101.5,0,1,1,208,99.5,101.5,101.5,0,0,1,106.5,201Zm0-199A97.5,97.5,0,1,0,204,99.5,97.5,97.5,0,0,0,106.5,2Z" transform="translate(-5)"/>
  <path id="AddIcon" class="cls-2" d="M134.716,149H72.209a6.272,6.272,0,0,1-6.217-6.315V65.535l17.694-19.53h51.03a6.278,6.278,0,0,1,6.217,6.316v90.36A6.275,6.275,0,0,1,134.716,149ZM84.994,52.692L71.687,66.784H84.994V52.692Zm50.717-.37a1,1,0,0,0-1-1.01h-44.5V69.437A2.633,2.633,0,0,1,87.6,72.085H71.213v70.594a1.009,1.009,0,0,0,1,1.015h62.506a1.006,1.006,0,0,0,1-1.015V52.322Zm-28.763,63.491h-5.567V104.83H89.59V99.847h11.791V88.863h5.567V99.847h11.79v4.983h-11.79v10.983Z" transform="translate(-5)"/>
</svg>
