{
    "requestHeaders": [
        {
            "customer": "string",
            "channel": "string",
            "requestType": "string",
            "batchDescription": "string",
            "createdBy": "string",
            "createdDate": "string",
            "batchId": "string",
            "fileReference": "string",
            "status": "string",
            "requestAggregateSummary": {
                "pendingDataTeamReviewCount": 0,
                "pendingCommercialReviewCount": 0,
                "pendingSupplychainReviewCount": 0,
                "productCount": 0,
                "rejectedCount": 0,
                "erroredCount": 0,
                "awaitingExportCount": 0,
                "exportCount": 0,
                "productsCount": 0
            },
            "requestDetails": [
                {
                    "batchId": "string",
                    "batchDetailId": "string",
                    "lpm": "L0549263-P106853600-M106853597",
                    "legacyId": "string",
                    "min": "string",
                    "pin": "string",
                    "itemDesc": "Smarties Giant Tube, 150g",
                    "CLIENTID": "CLIENTID",
                    "availableToStorepick": "offered",
                    "availableToFresh": "ranged",
                    "availableToPantry": "offered",
                    "availableToPrimeNow": "ranged",
                    "availableToCore": "offered",
                    "status": "string",
                    "dataReviewStatus": "Pending",
                    "supplyChainReviewStatus": "string",
                    "commercialReviewStatus": "string",
                    "commercialTeam": {
                        "summary": {
                            "totalCost": "0.65",
                            "rrpNet": "0.83",
                            "markupPercentage": "15.00",
                            "overideMarkupPercentage": "",
                            "unitWsp": "0.75",
                            "customerMarginPercentage": "25.00",
                            "isTotalCostValid": true,
                            "isRrpNetValid": true,
                            "isMarkupPercentageValid": true,
                            "isOverideMarkupPercentageValid": true,
                            "isUnitWspValid": true,
                            "isCustomerMarginPercentageValid": true
                        },
                        "rrpNet": {
                            "vatRate": "10",
                            "rrpGross": "1.00",
                            "overiderrpGross": "1.20",
                            "rrpNet": "0.83",
                            "isVatRateValid": true,
                            "isRrpGrossValid": true,
                            "isOveriderrpGrossValid": true,
                            "isRrpNetValid": true
                        },
                        "totalCost": {
                            "morrisonsUnitCost": "0.61",
                            "logisticCost": "0.61",
                            "excludeLogistic": true,
                            "hoCharge": "0.17",
                            "totalCost": "0.65",
                            "isMorrisonsUnitCostValid": true,
                            "isLogisticCostValid": true,
                            "isExcludeLogisticValid": true,
                            "isHoChargeValid": true,
                            "isTotalCostValid": true
                        },
                        "morrisonsUnitCost": {
                            "caseCost": "9.13",
                            "caseSize": "15",
                            "morrisonsUnitCost": "0.61",
                            "isCaseCostValid": true,
                            "isCaseSizeValid": true,
                            "isMorrisonsUnitCostValid": true
                        },
                        "standardMarkup": {
                            "totalCost": "0.65",
                            "rrpNet": "0.83",
                            "standardWspMarkup": "12",
                            "standardMarginMarkup": "26.66",
                            "isTotalCostValid": true,
                            "isRrpNetValid": true,
                            "isStandardWspMarkupValid": true,
                            "isStandardMarginMarkupValid": true
                        }
                    }
                },
                {
                    "batchId": "string",
                    "batchDetailId": "string",
                    "lpm": "L0519300-P109190688-M109190670",
                    "legacyId": "string",
                    "min": "string",
                    "pin": "string",
                    "itemDesc": "Morrisons The Best Fully Iced Christmas Cake, 900g",
                    "CLIENTID": "CLIENTID",
                    "availableToStorepick": "offered",
                    "availableToFresh": "ranged",
                    "availableToPantry": "offered",
                    "availableToPrimeNow": "ranged",
                    "availableToCore": "offered",
                    "status": "string",
                    "dataReviewStatus": "Pending",
                    "supplyChainReviewStatus": "string",
                    "commercialReviewStatus": "string",
                    "commercialTeam": {
                        "summary": {
                            "totalCost": "7.33",
                            "rrpNet": "10.00",
                            "markupPercentage": "12.00",
                            "overideMarkupPercentage": "",
                            "unitWsp": "8.21",
                            "customerMarginPercentage": "17.90",
                            "isTotalCostValid": true,
                            "isRrpNetValid": true,
                            "isMarkupPercentageValid": true,
                            "isOverideMarkupPercentageValid": true,
                            "isUnitWspValid": true,
                            "isCustomerMarginPercentageValid": true
                        },
                        "rrpNet": {
                            "vatRate": "",
                            "rrpGross": "10.00",
                            "overiderrpGross": "",
                            "rrpNet": "10.00",
                            "isVatRateValid": true,
                            "isRrpGrossValid": true,
                            "isOveriderrpGrossValid": true,
                            "isRrpNetValid": true
                        },
                        "totalCost": {
                            "morrisonsUnitCost": "6.81",
                            "logisticCost": "6.81",
                            "excludeLogistic": false,
                            "hoCharge": "0.11",
                            "totalCost": "7.33",
                            "isMorrisonsUnitCostValid": true,
                            "isLogisticCostValid": true,
                            "isExcludeLogisticValid": true,
                            "isHoChargeValid": true,
                            "isTotalCostValid": true
                        },
                        "morrisonsUnitCost": {
                            "caseCost": "13.62",
                            "caseSize": "2",
                            "morrisonsUnitCost": "6.81",
                            "isCaseCostValid": true,
                            "isCaseSizeValid": true,
                            "isMorrisonsUnitCostValid": true
                        },
                        "standardMarkup": {
                            "totalCost": "7.33",
                            "rrpNet": "10.00",
                            "standardWspMarkup": "12",
                            "standardMarginMarkup": "17.94",
                            "isTotalCostValid": true,
                            "isRrpNetValid": true,
                            "isStandardWspMarkupValid": true,
                            "isStandardMarginMarkupValid": true
                        }
                    }
                },
                {
                    "batchId": "string",
                    "batchDetailId": "string",
                    "lpm": "L2115239-P108874210-M108874201",
                    "legacyId": "string",
                    "min": "string",
                    "pin": "string",
                    "itemDesc": "Morrisons Halloween Family Make Up Kit",
                    "CLIENTID": "CLIENTID",
                    "availableToStorepick": "offered",
                    "availableToFresh": "ranged",
                    "availableToPantry": "offered",
                    "availableToPrimeNow": "ranged",
                    "availableToCore": "offered",
                    "status": "string",
                    "dataReviewStatus": "Pending",
                    "supplyChainReviewStatus": "string",
                    "commercialReviewStatus": "string",
                    "commercialTeam": {
                        "summary": {
                            "totalCost": "1.83",
                            "rrpNet": "2.5",
                            "markupPercentage": "12.00",
                            "overideMarkupPercentage": "",
                            "unitWsp": "2.05",
                            "customerMarginPercentage": "18.00",
                            "isTotalCostValid": true,
                            "isRrpNetValid": true,
                            "isMarkupPercentageValid": true,
                            "isOverideMarkupPercentageValid": true,
                            "isUnitWspValid": true,
                            "isCustomerMarginPercentageValid": true
                        },
                        "rrpNet": {
                            "vatRate": "20",
                            "rrpGross": "3.00",
                            "overiderrpGross": "",
                            "rrpNet": "2.50",
                            "isVatRateValid": true,
                            "isRrpGrossValid": true,
                            "isOveriderrpGrossValid": true,
                            "isRrpNetValid": true
                        },
                        "totalCost": {
                            "morrisonsUnitCost": "1.70",
                            "logisticCost": "1.70",
                            "excludeLogistic": false,
                            "hoCharge": "0.03",
                            "totalCost": "1.83",
                            "isMorrisonsUnitCostValid": true,
                            "isLogisticCostValid": true,
                            "isExcludeLogisticValid": true,
                            "isHoChargeValid": true,
                            "isTotalCostValid": true
                        },
                        "morrisonsUnitCost": {
                            "caseCost": "13.58",
                            "caseSize": "8",
                            "morrisonsUnitCost": "1.7",
                            "isCaseCostValid": true,
                            "isCaseSizeValid": true,
                            "isMorrisonsUnitCostValid": true
                        },
                        "standardMarkup": {
                            "totalCost": "1.83",
                            "rrpNet": "2.50",
                            "standardWspMarkup": "12",
                            "standardMarginMarkup": "18.18",
                            "isTotalCostValid": true,
                            "isRrpNetValid": true,
                            "isStandardWspMarkupValid": true,
                            "isStandardMarginMarkupValid": true
                        }
                    }
                },
                {
                    "batchId": "string",
                    "batchDetailId": "string",
                    "lpm": "L0958020-P101716171-M101547321",
                    "legacyId": "string",
                    "min": "string",
                    "pin": "string",
                    "itemDesc": "Whiteway's Cherry Wine ",
                    "CLIENTID": "CLIENTID",
                    "availableToStorepick": "offered",
                    "availableToFresh": "ranged",
                    "availableToPantry": "offered",
                    "availableToPrimeNow": "ranged",
                    "availableToCore": "offered",
                    "status": "string",
                    "dataReviewStatus": "Pending",
                    "supplyChainReviewStatus": "string",
                    "commercialReviewStatus": "string",
                    "commercialTeam": {
                        "summary": {
                            "totalCost": "0.87",
                            "rrpNet": "1.67",
                            "markupPercentage": "20.00",
                            "overideMarkupPercentage": "",
                            "unitWsp": "1.05",
                            "customerMarginPercentage": "37.00",
                            "isTotalCostValid": true,
                            "isRrpNetValid": true,
                            "isMarkupPercentageValid": true,
                            "isOverideMarkupPercentageValid": true,
                            "isUnitWspValid": true,
                            "isCustomerMarginPercentageValid": true
                        },
                        "rrpNet": {
                            "vatRate": "20",
                            "rrpGross": "2.00",
                            "overiderrpGross": "",
                            "rrpNet": "1.67",
                            "isVatRateValid": true,
                            "isRrpGrossValid": true,
                            "isOveriderrpGrossValid": true,
                            "isRrpNetValid": true
                        },
                        "totalCost": {
                            "morrisonsUnitCost": "0.81",
                            "logisticCost": "0.81",
                            "excludeLogistic": false,
                            "hoCharge": "0.01",
                            "totalCost": "0.87",
                            "isMorrisonsUnitCostValid": true,
                            "isLogisticCostValid": true,
                            "isExcludeLogisticValid": true,
                            "isHoChargeValid": true,
                            "isTotalCostValid": true
                        },
                        "morrisonsUnitCost": {
                            "caseCost": "3.25",
                            "caseSize": "4",
                            "morrisonsUnitCost": "0.81",
                            "isCaseCostValid": true,
                            "isCaseSizeValid": true,
                            "isMorrisonsUnitCostValid": true
                        },
                        "standardMarkup": {
                            "totalCost": "0.87",
                            "rrpNet": "1.67",
                            "standardWspMarkup": "12",
                            "standardMarginMarkup": "41.26",
                            "isTotalCostValid": true,
                            "isRrpNetValid": true,
                            "isStandardWspMarkupValid": true,
                            "isStandardMarginMarkupValid": true
                        }
                    }
                },
                {
                    "batchId": "string",
                    "batchDetailId": "string",
                    "lpm": "LO81420-P108970578-M108970560",
                    "legacyId": "string",
                    "min": "string",
                    "pin": "string",
                    "itemDesc": "Morrisons Jelly Brain Mould",
                    "CLIENTID": "CLIENTID",
                    "availableToStorepick": "offered",
                    "availableToFresh": "ranged",
                    "availableToPantry": "offered",
                    "availableToPrimeNow": "ranged",
                    "availableToCore": "offered",
                    "status": "string",
                    "dataReviewStatus": "Pending",
                    "supplyChainReviewStatus": "string",
                    "commercialReviewStatus": "string",
                    "commercialTeam": {
                        "summary": {
                            "totalCost": "2.92",
                            "rrpNet": "3.54",
                            "markupPercentage": "08.00",
                            "overideMarkupPercentage": "10.00",
                            "unitWsp": "3.22",
                            "customerMarginPercentage": "9.08",
                            "isTotalCostValid": true,
                            "isRrpNetValid": true,
                            "isMarkupPercentageValid": true,
                            "isOverideMarkupPercentageValid": true,
                            "isUnitWspValid": true,
                            "isCustomerMarginPercentageValid": true
                        },
                        "rrpNet": {
                            "vatRate": "20",
                            "rrpGross": "4.25",
                            "overiderrpGross": "",
                            "rrpNet": "3.54",
                            "isVatRateValid": true,
                            "isRrpGrossValid": true,
                            "isOveriderrpGrossValid": true,
                            "isRrpNetValid": true
                        },
                        "totalCost": {
                            "morrisonsUnitCost": "2.72",
                            "logisticCost": "2.72",
                            "excludeLogistic": false,
                            "hoCharge": "0.04",
                            "totalCost": "2.92",
                            "isMorrisonsUnitCostValid": true,
                            "isLogisticCostValid": true,
                            "isExcludeLogisticValid": true,
                            "isHoChargeValid": true,
                            "isTotalCostValid": true
                        },
                        "morrisonsUnitCost": {
                            "caseCost": "16.3",
                            "caseSize": "6",
                            "morrisonsUnitCost": "2.72",
                            "isCaseCostValid": true,
                            "isCaseSizeValid": true,
                            "isMorrisonsUnitCostValid": true
                        },
                        "standardMarkup": {
                            "totalCost": "2.92",
                            "rrpNet": "3.54",
                            "standardWspMarkup": "12",
                            "standardMarginMarkup": "7.57",
                            "isTotalCostValid": true,
                            "isRrpNetValid": true,
                            "isStandardWspMarkupValid": true,
                            "isStandardMarginMarkupValid": true
                        }
                    }
                },
                {
                    "batchId": "string",
                    "batchDetailId": "string",
                    "lpm": "L0966604-P107543620-M107543611",
                    "legacyId": "string",
                    "min": "string",
                    "pin": "string",
                    "itemDesc": "Label 5 Blended Scotch Whisky",
                    "CLIENTID": "CLIENTID",
                    "availableToStorepick": "offered",
                    "availableToFresh": "ranged",
                    "availableToPantry": "offered",
                    "availableToPrimeNow": "ranged",
                    "availableToCore": "offered",
                    "status": "string",
                    "dataReviewStatus": "Pending",
                    "supplyChainReviewStatus": "string",
                    "commercialReviewStatus": "string",
                    "commercialTeam": {
                        "summary": {
                            "totalCost": "11.44",
                            "rrpNet": "12.5",
                            "markupPercentage": "05.00",
                            "overideMarkupPercentage": "",
                            "unitWsp": "12.02",
                            "customerMarginPercentage": "9.85",
                            "isTotalCostValid": true,
                            "isRrpNetValid": true,
                            "isMarkupPercentageValid": true,
                            "isOverideMarkupPercentageValid": true,
                            "isUnitWspValid": true,
                            "isCustomerMarginPercentageValid": true
                        },
                        "rrpNet": {
                            "vatRate": "20",
                            "rrpGross": "15.00",
                            "overiderrpGross": "16.00",
                            "rrpNet": "12.50",
                            "isVatRateValid": true,
                            "isRrpGrossValid": true,
                            "isOveriderrpGrossValid": true,
                            "isRrpNetValid": true
                        },
                        "totalCost": {
                            "morrisonsUnitCost": "10.64",
                            "logisticCost": "10.64",
                            "excludeLogistic": false,
                            "hoCharge": "0.01",
                            "totalCost": "11.44",
                            "isMorrisonsUnitCostValid": true,
                            "isLogisticCostValid": true,
                            "isExcludeLogisticValid": true,
                            "isHoChargeValid": true,
                            "isTotalCostValid": true
                        },
                        "morrisonsUnitCost": {
                            "caseCost": "63.82",
                            "caseSize": "6",
                            "morrisonsUnitCost": "10.64",
                            "isCaseCostValid": true,
                            "isCaseSizeValid": true,
                            "isMorrisonsUnitCostValid": true
                        },
                        "standardMarkup": {
                            "totalCost": "11.44",
                            "rrpNet": "12.50",
                            "standardWspMarkup": "12",
                            "standardMarginMarkup": "3.87",
                            "isTotalCostValid": true,
                            "isRrpNetValid": true,
                            "isStandardWspMarkupValid": true,
                            "isStandardMarginMarkupValid": true
                        }
                    }
                }
            ]
        }
    ],
    "pendingRequestSummary": {
        "pendingDataTeamReviewCount": 12,
        "pendingCommercialReviewCount": 15,
        "pendingSupplychainReviewCount": 17
    },
    "errorSummary": {
        "dataTeamBasicError": 6,
        "dataTeamNutritionError": 0,
        "dataTeamSafetyError": 4,
        "dataTeamBatteryError": 0,
        "dataTeamDimensionError": 0,
        "dataTeamFinancialError": 0,
        "dataTeamIdentifierError": 0,
        "dataTeamDescriptionalError": 0,
        "dataTeamBwsError": 0,
        "dataTeamWarehouseError": 0,
        "supplychainMainError": 0,
        "supplychainWarehouseError": 0,
        "commerecialTeamSummaryError": 0,
        "commerecialTeamRrpNetError": 0,
        "commerecialTeamTotalCostError": 0,
        "commerecialTeamMorrisonsUnitCostError": 6,
        "commerecialTeamStandardMarkup": 0
    }
}