{
	"files": [
		{
			"userEmail": "anupam.kakkar@morrisonsplc.co.uk",
			"type": "catalogue",
			"fileName": "mastercatalog-amazon-2017-11-06-130707.csv",
			"downloadURL": "https://msit.xxwmm.wholesaleweb.catalogue.eeeeeeeeee.s3-eu-west-1.amazonaws.com/wholesaleexportcatalogue/amazon/default/amazon-default-06112017154727.csv",
			"uploadDate": "10/11/2017 22:48:06",
			"validUpto": "12/11/2017 00:36:46"
		},
		{
			"userEmail": "mastek2@wholesale.com",
			"type": "catalogue",
			"fileName": "mastercatalog-amazon-2017-11-03-130707.csv",
			"downloadURL": "https://msit.xxwmm.wholesaleweb.catalogue.eeeeeeeeee.s3-eu-west-1.amazonaws.com/wholesaleexportcatalogue/amazon/default/amazon-default-06112017154727.csv",
			"uploadDate": "9/11/2017 22:48:06",
			"validUpto": "12/11/2017 00:36:46"
		}
	],
	"paginationMetaData": {
		"limit": 50,
		"count": 1,
		"offset": 1
	}
}