{  
   "requestHeaders":[  
      {  
         "customer":"Amazon",
         "channel":"Default",
         "requestType":"RAF",
         "batchDescription":"Customer Batch Description",
         "createdBy":"Morrison's",
         "createdDate":"05/10/2017",
         "batchId":"1210",
         "fileReference":"fileReference",
         "trackId":13124,
         "status":"Available",
         "rangedForStorePick":4,
         "rangedForFresh":1,
         "rangedForPantry":2,
         "rangedForCore":5,
         "rangedForPrimeNow":3,
         "totalStorePickCnt":2,
         "totalFreshCnt":7,
         "totalPantryCnt":3,
         "totalCoreCnt":1,
         "totalPrimeNowCnt":5,
         "requestAggregateSummary":{  
            "pendingDataTeamReviewCount":1,
            "pendingCommercialReviewCount":3,
            "pendingSupplychainReviewCount":4,
            "productCount":7,
            "rejectedCount":5,
            "erroredCount":1,
            "awaitingExportCount":1,
            "exportCount":2,
            "productsCount":7
         }
      },
      {  
         "customer":"Amazon",
         "channel":"Default",
         "requestType":"RAF",
         "batchDescription":"Customer Batch Description",
         "createdBy":"Morrison's",
         "createdDate":"05/10/2017",
         "batchId":"1210",
         "fileReference":"fileReference",
         "trackId":13124,
         "status":"Available",
         "rangedForStorePick":4,
         "rangedForFresh":1,
         "rangedForPantry":2,
         "rangedForCore":5,
         "rangedForPrimeNow":3,
         "totalStorePickCnt":2,
         "totalFreshCnt":7,
         "totalPantryCnt":3,
         "totalCoreCnt":1,
         "totalPrimeNowCnt":5,
         "requestAggregateSummary":{  
            "pendingDataTeamReviewCount":1,
            "pendingCommercialReviewCount":3,
            "pendingSupplychainReviewCount":4,
            "productCount":7,
            "rejectedCount":5,
            "erroredCount":1,
            "awaitingExportCount":1,
            "exportCount":2,
            "productsCount":7
         }
      }
   ]
}