{
  "fulfilmentList": [
    {
      "category": "AM (Ambient)",
      "uom": "EA (Eaches)",
      "legacy": "0989305",
      "pin": "101711469",
      "productDescription": "Moet & Chandon N/V Champagne 75Cl",
      "orderRaised": {
        "totalQty": 90,
        "noOfLines": 9
      },
      "orderConfirmed": {
        "totalQty": 50,
        "noOfLines": 5
      },
      "orderShipped": {},
      "orderRejected": {
        "totalQty": 10,
        "noOfLines": 1
      }
    },
    {
      "category": "AM (Ambient)",
      "uom": "EA (Eaches)",
      "legacy": "0966690",
      "pin": "101709297",
      "productDescription": "Bell's Original Whisky (T) Litre",
      "orderRaised": {
        "totalQty": 90,
        "noOfLines": 9
      },
      "orderConfirmed": {
        "totalQty": 50,
        "noOfLines": 5
      },
      "orderShipped": {},
      "orderRejected": {
        "totalQty": 20,
        "noOfLines": 2
      }
    },
    {
      "category": "AM (Ambient)",
      "uom": "EA (Eaches)",
      "legacy": "0968199",
      "pin": "101722731",
      "productDescription": "Sailor Jerry Rum 40% 70Cl",
      "orderRaised": {
        "totalQty": 45,
        "noOfLines": 9
      },
      "orderConfirmed": {
        "totalQty": 25,
        "noOfLines": 5
      },
      "orderShipped": {},
      "orderRejected": {
        "totalQty": 5,
        "noOfLines": 1
      }
    },
    {
      "category": "AM (Ambient)",
      "uom": "EA (Eaches)",
      "legacy": "0968199",
      "pin": "101722731",
      "productDescription": "Sailor Jerry Rum 40% 70Cl",
      "orderRaised": {
        "totalQty": 45,
        "noOfLines": 9
      },
      "orderConfirmed": {
        "totalQty": 25,
        "noOfLines": 5
      },
      "orderShipped": {},
      "orderRejected": {
        "totalQty": 5,
        "noOfLines": 1
      }
    },
    {
      "category": "AM (Ambient)",
      "uom": "EA (Eaches)",
      "legacy": "0968199",
      "pin": "101722731",
      "productDescription": "Sailor Jerry Rum 40% 70Cl",
      "orderRaised": {
        "totalQty": 45,
        "noOfLines": 9
      },
      "orderConfirmed": {
        "totalQty": 25,
        "noOfLines": 5
      },
      "orderShipped": {},
      "orderRejected": {
        "totalQty": 5,
        "noOfLines": 1
      }
    },
    {
      "category": "AM (Ambient)",
      "uom": "EA (Eaches)",
      "legacy": "0968199",
      "pin": "101722731",
      "productDescription": "Sailor Jerry Rum 40% 70Cl",
      "orderRaised": {
        "totalQty": 45,
        "noOfLines": 9
      },
      "orderConfirmed": {
        "totalQty": 25,
        "noOfLines": 5
      },
      "orderShipped": {},
      "orderRejected": {
        "totalQty": 5,
        "noOfLines": 1
      }
    },
    {
      "category": "AM (Ambient)",
      "uom": "EA (Eaches)",
      "legacy": "0968199",
      "pin": "101722731",
      "productDescription": "Sailor Jerry Rum 40% 70Cl",
      "orderRaised": {
        "totalQty": 45,
        "noOfLines": 9
      },
      "orderConfirmed": {
        "totalQty": 25,
        "noOfLines": 5
      },
      "orderShipped": {},
      "orderRejected": {
        "totalQty": 5,
        "noOfLines": 1
      }
    },
    {
      "category": "AM (Ambient)",
      "uom": "EA (Eaches)",
      "legacy": "0968199",
      "pin": "101722731",
      "productDescription": "Sailor Jerry Rum 40% 70Cl",
      "orderRaised": {
        "totalQty": 45,
        "noOfLines": 9
      },
      "orderConfirmed": {
        "totalQty": 25,
        "noOfLines": 5
      },
      "orderShipped": {},
      "orderRejected": {
        "totalQty": 5,
        "noOfLines": 1
      }
    },
    {
      "category": "AM (Ambient)",
      "uom": "EA (Eaches)",
      "legacy": "0968199",
      "pin": "101722731",
      "productDescription": "Sailor Jerry Rum 40% 70Cl",
      "orderRaised": {
        "totalQty": 45,
        "noOfLines": 9
      },
      "orderConfirmed": {
        "totalQty": 25,
        "noOfLines": 5
      },
      "orderShipped": {},
      "orderRejected": {
        "totalQty": 5,
        "noOfLines": 1
      }
    },
    {
      "category": "AM (Ambient)",
      "uom": "EA (Eaches)",
      "legacy": "0968199",
      "pin": "101722731",
      "productDescription": "Sailor Jerry Rum 40% 70Cl",
      "orderRaised": {
        "totalQty": 45,
        "noOfLines": 9
      },
      "orderConfirmed": {
        "totalQty": 25,
        "noOfLines": 5
      },
      "orderShipped": {},
      "orderRejected": {
        "totalQty": 5,
        "noOfLines": 1
      }
    },
    {
      "category": "AM (Ambient)",
      "uom": "EA (Eaches)",
      "legacy": "0968199",
      "pin": "101722731",
      "productDescription": "Sailor Jerry Rum 40% 70Cl",
      "orderRaised": {
        "totalQty": 45,
        "noOfLines": 9
      },
      "orderConfirmed": {
        "totalQty": 25,
        "noOfLines": 5
      },
      "orderShipped": {},
      "orderRejected": {
        "totalQty": 5,
        "noOfLines": 1
      }
    },
    {
      "category": "AM (Ambient)",
      "uom": "EA (Eaches)",
      "legacy": "0968199",
      "pin": "101722731",
      "productDescription": "Sailor Jerry Rum 40% 70Cl",
      "orderRaised": {
        "totalQty": 45,
        "noOfLines": 9
      },
      "orderConfirmed": {
        "totalQty": 25,
        "noOfLines": 5
      },
      "orderShipped": {},
      "orderRejected": {
        "totalQty": 5,
        "noOfLines": 1
      }
    },
    {
      "category": "AM (Ambient)",
      "uom": "EA (Eaches)",
      "legacy": "0968199",
      "pin": "101722731",
      "productDescription": "Sailor Jerry Rum 40% 70Cl",
      "orderRaised": {
        "totalQty": 45,
        "noOfLines": 9
      },
      "orderConfirmed": {
        "totalQty": 25,
        "noOfLines": 5
      },
      "orderShipped": {},
      "orderRejected": {
        "totalQty": 5,
        "noOfLines": 1
      }
    },
    {
      "category": "AM (Ambient)",
      "uom": "EA (Eaches)",
      "legacy": "0968199",
      "pin": "101722731",
      "productDescription": "Sailor Jerry Rum 40% 70Cl",
      "orderRaised": {
        "totalQty": 45,
        "noOfLines": 9
      },
      "orderConfirmed": {
        "totalQty": 25,
        "noOfLines": 5
      },
      "orderShipped": {},
      "orderRejected": {
        "totalQty": 5,
        "noOfLines": 1
      }
    },
    {
      "category": "AM (Ambient)",
      "uom": "EA (Eaches)",
      "legacy": "0968199",
      "pin": "101722731",
      "productDescription": "Sailor Jerry Rum 40% 70Cl",
      "orderRaised": {
        "totalQty": 45,
        "noOfLines": 9
      },
      "orderConfirmed": {
        "totalQty": 25,
        "noOfLines": 5
      },
      "orderShipped": {},
      "orderRejected": {
        "totalQty": 5,
        "noOfLines": 1
      }
    },
    {
      "category": "AM (Ambient)",
      "uom": "EA (Eaches)",
      "legacy": "0968199",
      "pin": "101722731",
      "productDescription": "Sailor Jerry Rum 40% 70Cl",
      "orderRaised": {
        "totalQty": 45,
        "noOfLines": 9
      },
      "orderConfirmed": {
        "totalQty": 25,
        "noOfLines": 5
      },
      "orderShipped": {},
      "orderRejected": {
        "totalQty": 5,
        "noOfLines": 1
      }
    },
    {
      "category": "AM (Ambient)",
      "uom": "EA (Eaches)",
      "legacy": "0968199",
      "pin": "101722731",
      "productDescription": "Sailor Jerry Rum 40% 70Cl",
      "orderRaised": {
        "totalQty": 45,
        "noOfLines": 9
      },
      "orderConfirmed": {
        "totalQty": 25,
        "noOfLines": 5
      },
      "orderShipped": {},
      "orderRejected": {
        "totalQty": 5,
        "noOfLines": 1
      }
    },
    {
      "category": "AM (Ambient)",
      "uom": "EA (Eaches)",
      "legacy": "0968199",
      "pin": "101722731",
      "productDescription": "Sailor Jerry Rum 40% 70Cl",
      "orderRaised": {
        "totalQty": 45,
        "noOfLines": 9
      },
      "orderConfirmed": {
        "totalQty": 25,
        "noOfLines": 5
      },
      "orderShipped": {},
      "orderRejected": {
        "totalQty": 5,
        "noOfLines": 1
      }
    },
    {
      "category": "AM (Ambient)",
      "uom": "EA (Eaches)",
      "legacy": "0968199",
      "pin": "101722731",
      "productDescription": "Sailor Jerry Rum 40% 70Cl",
      "orderRaised": {
        "totalQty": 45,
        "noOfLines": 9
      },
      "orderConfirmed": {
        "totalQty": 25,
        "noOfLines": 5
      },
      "orderShipped": {},
      "orderRejected": {
        "totalQty": 5,
        "noOfLines": 1
      }
    },
    {
      "category": "AM (Ambient)",
      "uom": "EA (Eaches)",
      "legacy": "0968199",
      "pin": "101722731",
      "productDescription": "Sailor Jerry Rum 40% 70Cl",
      "orderRaised": {
        "totalQty": 45,
        "noOfLines": 9
      },
      "orderConfirmed": {
        "totalQty": 25,
        "noOfLines": 5
      },
      "orderShipped": {},
      "orderRejected": {
        "totalQty": 5,
        "noOfLines": 1
      }
    },
    {
      "category": "AM (Ambient)",
      "uom": "EA (Eaches)",
      "legacy": "0968199",
      "pin": "101722731",
      "productDescription": "Sailor Jerry Rum 40% 70Cl",
      "orderRaised": {
        "totalQty": 45,
        "noOfLines": 9
      },
      "orderConfirmed": {
        "totalQty": 25,
        "noOfLines": 5
      },
      "orderShipped": {},
      "orderRejected": {
        "totalQty": 5,
        "noOfLines": 1
      }
    },
    {
      "category": "AM (Ambient)",
      "uom": "EA (Eaches)",
      "legacy": "0968199",
      "pin": "101722731",
      "productDescription": "Sailor Jerry Rum 40% 70Cl",
      "orderRaised": {
        "totalQty": 45,
        "noOfLines": 9
      },
      "orderConfirmed": {
        "totalQty": 25,
        "noOfLines": 5
      },
      "orderShipped": {},
      "orderRejected": {
        "totalQty": 5,
        "noOfLines": 1
      }
    },
    {
      "category": "AM (Ambient)",
      "uom": "EA (Eaches)",
      "legacy": "0968199",
      "pin": "101722731",
      "productDescription": "Sailor Jerry Rum 40% 70Cl",
      "orderRaised": {
        "totalQty": 45,
        "noOfLines": 9
      },
      "orderConfirmed": {
        "totalQty": 25,
        "noOfLines": 5
      },
      "orderShipped": {},
      "orderRejected": {
        "totalQty": 5,
        "noOfLines": 1
      }
    },
    {
      "category": "AM (Ambient)",
      "uom": "EA (Eaches)",
      "legacy": "0968199",
      "pin": "101722731",
      "productDescription": "Sailor Jerry Rum 40% 70Cl",
      "orderRaised": {
        "totalQty": 45,
        "noOfLines": 9
      },
      "orderConfirmed": {
        "totalQty": 25,
        "noOfLines": 5
      },
      "orderShipped": {},
      "orderRejected": {
        "totalQty": 5,
        "noOfLines": 1
      }
    },
    {
      "category": "AM (Ambient)",
      "uom": "EA (Eaches)",
      "legacy": "0968199",
      "pin": "101722731",
      "productDescription": "Sailor Jerry Rum 40% 70Cl",
      "orderRaised": {
        "totalQty": 45,
        "noOfLines": 9
      },
      "orderConfirmed": {
        "totalQty": 25,
        "noOfLines": 5
      },
      "orderShipped": {},
      "orderRejected": {
        "totalQty": 5,
        "noOfLines": 1
      }
    },
    {
      "category": "AM (Ambient)",
      "uom": "EA (Eaches)",
      "legacy": "0968199",
      "pin": "101722731",
      "productDescription": "Sailor Jerry Rum 40% 70Cl",
      "orderRaised": {
        "totalQty": 45,
        "noOfLines": 9
      },
      "orderConfirmed": {
        "totalQty": 25,
        "noOfLines": 5
      },
      "orderShipped": {},
      "orderRejected": {
        "totalQty": 5,
        "noOfLines": 1
      }
    },
    {
      "category": "AM (Ambient)",
      "uom": "EA (Eaches)",
      "legacy": "0968199",
      "pin": "101722731",
      "productDescription": "Sailor Jerry Rum 40% 70Cl",
      "orderRaised": {
        "totalQty": 45,
        "noOfLines": 9
      },
      "orderConfirmed": {
        "totalQty": 25,
        "noOfLines": 5
      },
      "orderShipped": {},
      "orderRejected": {
        "totalQty": 5,
        "noOfLines": 1
      }
    },
    {
      "category": "AM (Ambient)",
      "uom": "EA (Eaches)",
      "legacy": "0968199",
      "pin": "101722731",
      "productDescription": "Sailor Jerry Rum 40% 70Cl",
      "orderRaised": {
        "totalQty": 45,
        "noOfLines": 9
      },
      "orderConfirmed": {
        "totalQty": 25,
        "noOfLines": 5
      },
      "orderShipped": {},
      "orderRejected": {
        "totalQty": 5,
        "noOfLines": 1
      }
    },
    {
      "category": "AM (Ambient)",
      "uom": "EA (Eaches)",
      "legacy": "0968199",
      "pin": "101722731",
      "productDescription": "Sailor Jerry Rum 40% 70Cl",
      "orderRaised": {
        "totalQty": 45,
        "noOfLines": 9
      },
      "orderConfirmed": {
        "totalQty": 25,
        "noOfLines": 5
      },
      "orderShipped": {},
      "orderRejected": {
        "totalQty": 5,
        "noOfLines": 1
      }
    },
    {
      "category": "AM (Ambient)",
      "uom": "EA (Eaches)",
      "legacy": "0968199",
      "pin": "101722731",
      "productDescription": "Sailor Jerry Rum 40% 70Cl",
      "orderRaised": {
        "totalQty": 45,
        "noOfLines": 9
      },
      "orderConfirmed": {
        "totalQty": 25,
        "noOfLines": 5
      },
      "orderShipped": {},
      "orderRejected": {
        "totalQty": 5,
        "noOfLines": 1
      }
    },
    {
      "category": "AM (Ambient)",
      "uom": "EA (Eaches)",
      "legacy": "0968199",
      "pin": "101722731",
      "productDescription": "Sailor Jerry Rum 40% 70Cl",
      "orderRaised": {
        "totalQty": 45,
        "noOfLines": 9
      },
      "orderConfirmed": {
        "totalQty": 25,
        "noOfLines": 5
      },
      "orderShipped": {},
      "orderRejected": {
        "totalQty": 5,
        "noOfLines": 1
      }
    },
    {
      "category": "AM (Ambient)",
      "uom": "EA (Eaches)",
      "legacy": "0968199",
      "pin": "101722731",
      "productDescription": "Sailor Jerry Rum 40% 70Cl",
      "orderRaised": {
        "totalQty": 45,
        "noOfLines": 9
      },
      "orderConfirmed": {
        "totalQty": 25,
        "noOfLines": 5
      },
      "orderShipped": {},
      "orderRejected": {
        "totalQty": 5,
        "noOfLines": 1
      }
    },
    {
      "category": "AM (Ambient)",
      "uom": "EA (Eaches)",
      "legacy": "0968199",
      "pin": "101722731",
      "productDescription": "Sailor Jerry Rum 40% 70Cl",
      "orderRaised": {
        "totalQty": 45,
        "noOfLines": 9
      },
      "orderConfirmed": {
        "totalQty": 25,
        "noOfLines": 5
      },
      "orderShipped": {},
      "orderRejected": {
        "totalQty": 5,
        "noOfLines": 1
      }
    }
  ]
}
