 {

  "customerid": "amazon",

  "groupId": 2,

  "groupName": "morrisons-group",

  "groupDescription": "morrisons-group-desc",

  "groupStatus": "active",

  "userId": 0,

  "roleId": 4,

  "roleName": "amazon-role",

  "roleDescription": "amazon-role-desc",

  "roleStatus": "inactive",

  "permissionMasterList": [

    {

      "customer": "amazon",

      "permissionGroupList": [

        {

          "permissionGroup": "menuPermission",

          "permissionNameList": [

            {

              "permissionName": "catalogueEnquiry",

              "permissionStatus": "active"

            },

            {

              "permissionName": "catalogueManagement",

              "permissionStatus": " "

            }

          ]

        }

      ]

    }

   

  ]

}