{
	"customerid": "mccolls",
	"groupId": 1,
	"groupName": "MEE_testGroup1",
	"groupDescription": "test group1",
	"groupStatus": "active",
	"roleId": 1,
	"roleName": "test_role",
	"roleDescription": "test desc",
	"roleStatus": "active",
	"roleUsers": [],
	"customerList": [{
		"customerId": 1,
		"customerName": "mccolls",
		"status": "active"
	}, {
		"customerId": 2,
		"customerName": "amazon",
		"status": "deactivate"
	}, {
		"customerId": 3,
		"customerName": "rontec",
		"status": ""
	}, {
		"customerId": 4,
		"customerName": "sandpiper",
		"status": ""
	}]
}