{
    "customerid": "default",
    "groupId": 1,
    "groupName": "testgroup",
    "groupDescription": "test data group description",
    "groupStatus": "active",
    "roleId": 1,
    "roleName": "morrisons-role",
    "roleDescription": "test morrisons role",
    "roleStatus": "active",
    "userList": [
        {
            "userId": 1,
            "userName": "Neil",
            "userDescription": "Admin",
            "userLogon": "nilesh.1.namjoshi@morrisonsplc.co.in",
            "adminFlag": true,
            "createdDate": "",
            "createdBy": "",
            "updatedDate": "",
            "updatedBy": ""
        }, {
            "userId": 2,
            "userName": "Neeta",
            "userDescription": "Admin",
            "userLogon": "neeta@anupam.co.in",
            "adminFlag": false,
            "createdDate": "",
            "createdBy": "",
            "updatedDate": "",
            "updatedBy": ""
        }
    ]
}