{
	"periodicRepricingId": 28,
	"batchDate": "20180228",
	"customerId": "mccolls",
	"catalogueName": "main",
	"pendingStatusCount": "2935",
	"status": "PeriodicSubmitted",
	"periodicRepricing": [
		{
			"legacyCode": "0690249",
			"pin": "106679429",
			"min": "106679411",
			"productDesc": "Pedigree Pouch Favourites/Jelly 12X100G",
			"brandFlag": "branded",
			"productInfo": {
				"supplier": "MARS PETCARE UK",
				"tradingGroup": "Pet",
				"productGroup": "Pet Food Products",
				"className": "Pet Food Products (c)",
				"subClass": "Wet",
				"barcode": "3065890123892",
				"customerImpact": "132323",
				"itemAnnualSaleQty": "0",
				"reasonCode":""
			},
			"cost": {
				"percIncrease": 1.53,
				"amount": 3.2400,
				"retailSellingPrice": 0.00,
				"vat": 20.00,
				"date": "2018-02-01T15:56:49Z",
				"caseSize": "4",
				"caseCost": 10.00,
				"wsp": 2.1150,
				"unitCost": 2.5000,
				"dateNew": "2018-02-01T15:56:49Z",
				"caseSizeNew": "4",
				"caseCostNew": 20.00,
				"unitCostNew": 5.00,
				"wspNew": 5.3550,
				"currencyType": "GBP",
				"uomType": "CS"
			},
			"margin": {
				"overriderPercent": 0.00,
				"deliveryChargeUnit": 0.2500,
				"totalCost": 5.2500,
				"calculatedMarginPercent": 2.0000,
				"finalMarginPercent": 2.0000
			},
			"nonPromoWsp": {
				"preChallengeWsp": 5.3571,
				"nonPromoChallenge": 0.0400,
				"nonPromoWspCase": 21.4200,
				"nonPromoFinalWsp": 5.3550
			},
			"promoWsp": {},
			"approvalStatus": "rejected"
		},
		{
			"legacyCode": "0790155",
			"pin": "107790743",
			"min": "100453031",
			"productDesc": "D.P. Wash Soda Crystals 1Kg",
			"brandFlag": "branded",
			"productInfo": {
				"supplier": "DRI-PAK LIMITED",
				"tradingGroup": "Household",
				"productGroup": "Washing Powders And Conditioner Products",
				"className": "Washing Powders And Conditioner Products (c)",
				"subClass": "Water Softener",
				"barcode": "5011289000297",
				"customerImpact": "132323",
				"itemAnnualSaleQty": "10",
				"reasonCode" : ""
			},
			"cost": {
				"percIncrease": 6.09,
				"amount": 3.0667,
				"retailSellingPrice": 0.00,
				"vat": 20.00,
				"date": "2018-02-01T15:55:34Z",
				"caseSize": "6",
				"caseCost": 10.00,
				"wsp": 0.5033,
				"unitCost": 1.6667,
				"dateNew": "2018-02-01T15:55:34Z",
				"caseSizeNew": "6",
				"caseCostNew": 20.00,
				"unitCostNew": 3.33,
				"wspNew": 3.5700,
				"currencyType": "GBP",
				"uomType": "EA"
			},
			"margin": {
				"overriderPercent": 0.00,
				"deliveryChargeUnit": 0.1667,
				"totalCost": 3.5000,
				"calculatedMarginPercent": 2.0000,
				"finalMarginPercent": 2.0000
			},
			"nonPromoWsp": {
				"preChallengeWsp": 3.5714,
				"nonPromoChallenge": 0.0400,
				"nonPromoWspCase": 21.4200,
				"nonPromoFinalWsp": 3.5700
			},
			"promoWsp": {},
			"approvalStatus": "rejected"
		}
	],
	"paginationMetaData": {
		"limit": 15,
		"count": 2960
	}
}