[
    {
        "tradingGroup":"Bakery, Cakes And Deserts"
    },
    {
        "tradingGroup":"Beers. Wines & Spirits"
    },
    {
        "tradingGroup":"Core Grocery"
    },
    {
        "tradingGroup":"Dairy"
    },
    {
        "tradingGroup":"Frozen"
    },
    {
        "tradingGroup":"Health & Beauty"
    },
    {
        "tradingGroup":"Home And Leisure"
    },
    {
        "tradingGroup":"Household & Pet"
    },
    {
        "tradingGroup":"Impulse"
    },
    {
        "tradingGroup":"Meal Solutions & Added Value Provisions"
    },
    {
        "tradingGroup":"Meat & Poultry"
    },
    {
        "tradingGroup":"Seafood"
    },
    {
        "tradingGroup":"Produce"
    },
    {
        "tradingGroup":"Tobacco"
    }
]