{
	"reportMaster": [{
		"reportType": "All Order Lines Daily Report",
		"reportTypeId": "1",
		"createdDate": "20/12/2017 11:16:56",
		"customerId": "mccolls",
		"reportPermission": "Y"
	}, {
		"reportType": "Orders Received Store Category Daily Report",
		"reportTypeId": "2",
		"createdDate": "21/12/2017 07:35:00",
		"customerId": "mccolls",
		"reportPermission": "N"
	}, {
		"reportType": "Periodic Repricing Draft Submission Report",
		"reportTypeId": "7",
		"createdDate": "21/02/2018 04:07:59",
		"customerId": "mccolls",
		"reportPermission": "N"
	}, {
		"reportType": "Periodic Repricing Submission Report",
		"reportTypeId": "6",
		"createdDate": "21/02/2018 04:07:59",
		"customerId": "mccolls",
		"reportPermission": "N"
	}, {
		"reportType": "Product Repricing Draft Submission Report",
		"reportTypeId": "5",
		"createdDate": "08/02/2018 07:03:52",
		"customerId": "mccolls",
		"reportPermission": "N"
	}, {
		"reportType": "Product Repricing Submission Report",
		"reportTypeId": "4",
		"createdDate": "21/01/2018 12:24:55",
		"customerId": "mccolls",
		"reportPermission": "N"
	}, {
		"reportType": "Shorted Order Lines Daily Report",
		"reportTypeId": "3",
		"createdDate": "20/12/2017 11:16:56",
		"customerId": "mccolls",
		"reportPermission": "N"
	}]
}