{
	"customerid": "1",
	"groupId": 1,
	"groupName": "admin",
	"groupDescription": "read,write",
	"groupStatus": "active",
	"userId": 1,
	"userName": "test",
	"userDescription": "technical",
	"userLogon": "current",
	"adminFlag": true,
	"userLoginDetails": [{
		"start": "2018-04-05 00:00:00",
		"end": "2018-04-05 00:00:00"
	}, {
		"start": "2018-04-05 00:00:00",
		"end": "2018-04-05 00:00:00"
	}]
}