 {
 "groupId": "Administration", 
 "groupName": "Administration",
  "groupDescription": "Administration",
  "groupStatus": "Active",
  "userId": "A",
  "userName": "ABC",
  "userDescription": "Admin",
  "userLogon": "MORRISON1234",
  "adminFlag": "Admin",
  "permissionMasterList": [
    {
      "customerId": "A",
      "permissionGroupList": [
        {
          "permissionGroup": "A",
          "permissionNameList": [
            {
              "permissionName": "ABC"
            }
          ]
        }
      ]      
    }
	]
	}